…
###### Question ######
# Why I can't use round(sports_balls) %>%  directly?
######################

trash_wheel_data
```

    ## # A tibble: 285 x 14
    ##    dumpster month  year date                weight_tons volume_cubic_ya~
    ##       <dbl> <chr> <dbl> <dttm>                    <dbl>            <dbl>
    ##  1        1 May    2014 2014-05-16 00:00:00        4.31               18
    ##  2        2 May    2014 2014-05-16 00:00:00        2.74               13
    ##  3        3 May    2014 2014-05-16 00:00:00        3.45               15
    ##  4        4 May    2014 2014-05-17 00:00:00        3.1                15
    ##  5        5 May    2014 2014-05-17 00:00:00        4.06               18
    ##  6        6 May    2014 2014-05-20 00:00:00        2.71               13
    ##  7        7 May    2014 2014-05-21 00:00:00        1.91                8
    ##  8        8 May    2014 2014-05-28 00:00:00        3.7                16
    ##  9        9 June   2014 2014-06-05 00:00:00        2.52               14
    ## 10       10 June   2014 2014-06-11 00:00:00        3.76               18
    ## # ... with 275 more rows, and 8 more variables: plastic_bottles <dbl>,
    ## #   polystyrene <dbl>, cigarette_butts <dbl>, glass_bottles <dbl>,
    ## #   grocery_bags <dbl>, chip_bags <dbl>, sports_balls <int>,
    ## #   homes_powered <dbl>
…
``` r
pols_month
```

    ## # A tibble: 822 x 9
    ##     year month    gov_gop sen_gop rep_gop gov_dem sen_dem rep_dem president
    ##    <int> <chr>      <dbl>   <dbl>   <dbl>   <dbl>   <dbl>   <dbl> <chr>    
    ##  1  1947 january       23      51     253      23      45     198 dem      
    ##  2  1947 february      23      51     253      23      45     198 dem      
    ##  3  1947 march         23      51     253      23      45     198 dem      
    ##  4  1947 april         23      51     253      23      45     198 dem      
    ##  5  1947 may           23      51     253      23      45     198 dem      
    ##  6  1947 june          23      51     253      23      45     198 dem      
    ##  7  1947 july          23      51     253      23      45     198 dem      
    ##  8  1947 august        23      51     253      23      45     198 dem      
    ##  9  1947 septemb~      23      51     253      23      45     198 dem      
    ## 10  1947 october       23      51     253      23      45     198 dem      
    ## # ... with 812 more rows
…
    ## Parsed with column specification:
    ## cols(
    ##   date = col_character(),
    ##   close = col_double()
    ## )

``` r
snp_data
```

    ## # A tibble: 787 x 3
    ##     year month     close
    ##    <int> <chr>     <dbl>
    ##  1  1950 january    17.0
    ##  2  1950 february   17.2
    ##  3  1950 march      17.3
    ##  4  1950 april      18.0
    ##  5  1950 may        18.8
    ##  6  1950 june       17.7
    ##  7  1950 july       17.8
    ##  8  1950 august     18.4
    ##  9  1950 september  19.5
    ## 10  1950 october    19.5
    ## # ... with 777 more rows
…
``` r
unemployment_data
```

    ## # A tibble: 816 x 3
    ##     year month     unemployment
    ##    <int> <chr>            <dbl>
    ##  1  1948 january            3.4
    ##  2  1948 february           3.8
    ##  3  1948 march              4  
    ##  4  1948 april              3.9
    ##  5  1948 may                3.5
    ##  6  1948 june               3.6
    ##  7  1948 july               3.6
    ##  8  1948 august             3.9
    ##  9  1948 september          3.8
    ## 10  1948 october            3.7
    ## # ... with 806 more rows

**Join the datasets** by merging snp into pols, and **merging**
unemployment into the result.

``` r
merge_data = 
  # merging snp into pols
  left_join(pols_month, snp_data, by = c("year","month")) %>% 
  # merging unemployment into the result
  left_join(., unemployment_data, by = c("year","month"))

merge_data
```

    ## # A tibble: 822 x 11
    ##     year month gov_gop sen_gop rep_gop gov_dem sen_dem rep_dem president
    ##    <int> <chr>   <dbl>   <dbl>   <dbl>   <dbl>   <dbl>   <dbl> <chr>    
    ##  1  1947 janu~      23      51     253      23      45     198 dem      
    ##  2  1947 febr~      23      51     253      23      45     198 dem      
    ##  3  1947 march      23      51     253      23      45     198 dem      
    ##  4  1947 april      23      51     253      23      45     198 dem      
    ##  5  1947 may        23      51     253      23      45     198 dem      
    ##  6  1947 june       23      51     253      23      45     198 dem      
    ##  7  1947 july       23      51     253      23      45     198 dem      
    ##  8  1947 augu~      23      51     253      23      45     198 dem      
    ##  9  1947 sept~      23      51     253      23      45     198 dem      
    ## 10  1947 octo~      23      51     253      23      45     198 dem      
    ## # ... with 812 more rows, and 2 more variables: close <dbl>,
    ## #   unemployment <dbl>
…
    ## Parsed with column specification:
    ## cols(
    ##   `Year of Birth` = col_double(),
    ##   Gender = col_character(),
    ##   Ethnicity = col_character(),
    ##   `Child's First Name` = col_character(),
    ##   Count = col_double(),
    ##   Rank = col_double()
    ## )

``` r
baby_names
```

    ## # A tibble: 12,181 x 6
    ##    year_of_birth gender ethnicity              childs_first_na~ count  rank
    ##            <dbl> <chr>  <chr>                  <chr>            <dbl> <dbl>
    ##  1          2016 female asian and pacific isl~ olivia             172     1
    ##  2          2016 female asian and pacific isl~ chloe              112     2
    ##  3          2016 female asian and pacific isl~ sophia             104     3
    ##  4          2016 female asian and pacific isl~ emily               99     4
    ##  5          2016 female asian and pacific isl~ emma                99     4
    ##  6          2016 female asian and pacific isl~ mia                 79     5
    ##  7          2016 female asian and pacific isl~ charlotte           59     6
    ##  8          2016 female asian and pacific isl~ sarah               57     7
    ##  9          2016 female asian and pacific isl~ isabella            56     8
    ## 10          2016 female asian and pacific isl~ hannah              56     8
    ## # ... with 12,171 more rows
…
